%YAML 1.1
%TAG !u! tag:unity3d.com,2011:
--- !u!114 &11400000
MonoBehaviour:
  m_ObjectHideFlags: 0
  m_CorrespondingSourceObject: {fileID: 0}
  m_PrefabInstance: {fileID: 0}
  m_PrefabAsset: {fileID: 0}
  m_GameObject: {fileID: 0}
  m_Enabled: 1
  m_EditorHideFlags: 0
  m_Script: {fileID: 11500000, guid: 378db4cb2dcfe9a45a1edbea13fb7832, type: 3}
  m_Name: Enrage
  m_EditorClassIdentifier: 
  spellId: 6
  spellName: Enrage
  spellDesc: Increases damage done by 20% for 20seconds
  icon: {fileID: 0}
  castSpeed: 0
  value: 0
  cooldownMax: 90
  manaCost: 10
  range: 0
  requiresTarget: 0
  castWhileMoving: 0
  applyBuffId: 3
  applyDebuffId: 0
